defaultuser,534278,2016-12-07T22:00:25,AddShopCart
defaultuser,122817,2016-12-07T22:01:50,AddShopCart
defaultuser,603402,2016-12-07T22:03:28,AddShopCart
defaultuser,379273,2016-12-07T22:03:52,AddShopCart
defaultuser,544437,2016-12-07T22:04:20,AddShopCart
defaultuser,544437,2016-12-07T22:04:26,AddShopCart
defaultuser,158042,2016-12-07T22:04:49,AddShopCart
defaultuser,473987,2016-12-07T22:05:19,AddShopCart
defaultuser,473987,2016-12-07T22:24:55,Click
defaultuser,158042,2016-12-07T22:26:01,Click
defaultuser,30342,2016-12-07T22:27:52,Click
defaultuser,30342,2016-12-07T22:59:03,AddShopCart
defaultuser,30342,2016-12-07T23:08:06,Click
defaultuser,30342,2016-12-07T23:10:48,Click
defaultuser,476760,2016-12-08T00:39:13,Click
defaultuser,476760,2016-12-08T00:39:46,AddShopCart
defaultuser,476760,2016-12-08T00:39:47,AddShopCart
defaultuser,161603,2016-12-08T00:46:34,Click
defaultuser,757883,2016-12-08T00:55:18,AddShopCart
defaultuser,757883,2016-12-08T00:55:20,Click
defaultuser,757883,2016-12-08T00:58:47,Click
defaultuser,757883,2016-12-08T01:06:46,Click
291B9aPRQ1hJaltiXlGZnem4AH0OYRDalQdaPBPDH6KcA,476760,2016-12-07T23:21:52,Click
291B9aPRQ1hJaltiXlGZnem4AH0OYRDalQdaPBPDH6KcA,694956,2016-12-07T23:22:22,Click
291B9aPRQ1hJaltiXlGZnem4AH0OYRDalQdaPBPDH6KcA,30342,2016-12-07T23:22:58,Click
291B9aPRQ1hJaltiXlGZnem4AH0OYRDalQdaPBPDH6KcA,694956,2016-12-07T23:24:22,AddShopCart
291B9aPRQ1hJaltiXlGZnem4AH0OYRDalQdaPBPDH6KcA,30342,2016-12-07T23:24:31,Click
291B9aPRQ1hJaltiXlGZnem4AH0OYRDalQdaPBPDH6KcA,30342,2016-12-07T23:24:41,AddShopCart
291B9aPRQ1hJaltiXlGZnem4AH0OYRDalQdaPBPDH6KcA,534278,2016-12-07T23:25:03,AddShopCart
291B9aPRQ1hJaltiXlGZnem4AH0OYRDalQdaPBPDH6KcA,575114,2016-12-07T23:25:48,AddShopCart
291B9aPRQ1hJaltiXlGZnem4AH0OYRDalQdaPBPDH6KcA,53747,2016-12-07T23:26:00,AddShopCart
291B9aPRQ1hJaltiXlGZnem4AH0OYRDalQdaPBPDH6KcA,694956,2016-12-07T23:48:39,Click
291B9aPRQ1hJaltiXlGZnem4AH0OYRDalQdaPBPDH6KcA,30342,2016-12-07T23:48:44,Click
291B9aPRQ1hJaltiXlGZnem4AH0OYRDalQdaPBPDH6KcA,207908,2016-12-07T23:48:59,Click
291B9aPRQ1hJaltiXlGZnem4AH0OYRDalQdaPBPDH6KcA,638496,2016-12-07T23:49:29,AddShopCart
291B9aPRQ1hJaltiXlGZnem4AH0OYRDalQdaPBPDH6KcA,691963,2016-12-07T23:50:29,AddShopCart
291B9aPRQ1hJaltiXlGZnem4AH0OYRDalQdaPBPDH6KcA,33854,2016-12-07T23:51:29,AddShopCart
291B9aPRQ1hJaltiXlGZnem4AH0OYRDalQdaPBPDH6KcA,581202,2016-12-07T23:52:29,AddShopCart
291B9aPRQ1hJaltiXlGZnem4AH0OYRDalQdaPBPDH6KcA,500972,2016-12-07T23:53:29,AddShopCart
291B9aPRQ1hJaltiXlGZnem4AH0OYRDalQdaPBPDH6KcA,205272,2016-12-07T23:54:29,AddShopCart
291B9aPRQ1hJaltiXlGZnem4AH0OYRDalQdaPBPDH6KcA,618226,2016-12-07T23:55:29,AddShopCart
291B9aPRQ1hJaltiXlGZnem4AH0OYRDalQdaPBPDH6KcA,223899,2016-12-07T23:56:29,AddShopCart
291B9aPRQ1hJaltiXlGZnem4AH0OYRDalQdaPBPDH6KcA,496839,2016-12-07T23:57:29,AddShopCart
291B9aPRQ1hJaltiXlGZnem4AH0OYRDalQdaPBPDH6KcA,56447,2016-12-07T23:58:29,AddShopCart
291B9aPRQ1hJaltiXlGZnem4AH0OYRDalQdaPBPDH6KcA,15163,2016-12-07T23:59:29,AddShopCart
